<?xml version="1.0" encoding="UTF-8" standalone="no"?>
<!-- Created with Inkscape (http://www.inkscape.org/) -->

<svg
   xmlns:osb="http://www.openswatchbook.org/uri/2009/osb"
   xmlns:dc="http://purl.org/dc/elements/1.1/"
   xmlns:cc="http://creativecommons.org/ns#"
   xmlns:rdf="http://www.w3.org/1999/02/22-rdf-syntax-ns#"
   xmlns:svg="http://www.w3.org/2000/svg"
   xmlns="http://www.w3.org/2000/svg"
   xmlns:sodipodi="http://sodipodi.sourceforge.net/DTD/sodipodi-0.dtd"
   xmlns:inkscape="http://www.inkscape.org/namespaces/inkscape"
   width="2865.4197mm"
   height="1913.0353mm"
   viewBox="0 0 2865.4196 1913.0353"
   version="1.1"
   id="svg8"
   inkscape:version="0.92.3 (2405546, 2018-03-11)"
   sodipodi:docname="FromXToX-sceno.svg"
   inkscape:export-filename="/media/data/art/FromX-ToX/dev/sceno/sceno_grapelli_plan_01.jpg.png"
   inkscape:export-xdpi="90"
   inkscape:export-ydpi="90">
  <defs
     id="defs2">
    <linearGradient
       id="linearGradient2521"
       osb:paint="solid">
      <stop
         style="stop-color:#000000;stop-opacity:1;"
         offset="0"
         id="stop2519" />
    </linearGradient>
    <filter
       inkscape:collect="always"
       style="color-interpolation-filters:sRGB"
       id="filter2725"
       x="-0.019028036"
       width="1.0380561"
       y="-0.20336653"
       height="1.4067332">
      <feGaussianBlur
         inkscape:collect="always"
         stdDeviation="4.1226963"
         id="feGaussianBlur2727" />
    </filter>
    <filter
       inkscape:collect="always"
       style="color-interpolation-filters:sRGB"
       id="filter3191"
       x="-0.73394692"
       width="2.4678938"
       y="-0.12745987"
       height="1.2549196">
      <feGaussianBlur
         inkscape:collect="always"
         stdDeviation="25.913616"
         id="feGaussianBlur3193" />
    </filter>
    <filter
       inkscape:collect="always"
       style="color-interpolation-filters:sRGB"
       id="filter3597"
       x="-0.26568884"
       width="1.5313777"
       y="-0.088879302"
       height="1.1777586">
      <feGaussianBlur
         inkscape:collect="always"
         stdDeviation="13.141426"
         id="feGaussianBlur3599" />
    </filter>
    <filter
       inkscape:collect="always"
       style="color-interpolation-filters:sRGB"
       id="filter3918"
       x="-0.079066366"
       width="1.1581327"
       y="-0.035710711"
       height="1.0714214">
      <feGaussianBlur
         inkscape:collect="always"
         stdDeviation="13.462402"
         id="feGaussianBlur3920" />
    </filter>
    <filter
       inkscape:collect="always"
       style="color-interpolation-filters:sRGB"
       id="filter4066"
       x="-0.073779352"
       width="1.1475587"
       y="-0.23482049"
       height="1.469641">
      <feGaussianBlur
         inkscape:collect="always"
         stdDeviation="8.6588523"
         id="feGaussianBlur4068" />
    </filter>
    <filter
       inkscape:collect="always"
       style="color-interpolation-filters:sRGB"
       id="filter4116"
       x="-0.13404787"
       width="1.2680957"
       y="-0.42663947"
       height="1.8532789">
      <feGaussianBlur
         inkscape:collect="always"
         stdDeviation="15.732052"
         id="feGaussianBlur4118" />
    </filter>
    <filter
       inkscape:collect="always"
       style="color-interpolation-filters:sRGB"
       id="filter4142"
       x="-0.038782775"
       width="1.0775656"
       y="-0.41449991"
       height="1.8289998">
      <feGaussianBlur
         inkscape:collect="always"
         stdDeviation="8.4028439"
         id="feGaussianBlur4144" />
    </filter>
    <filter
       inkscape:collect="always"
       style="color-interpolation-filters:sRGB"
       id="filter4192"
       x="-0.48350579"
       width="1.9670116"
       y="-0.16174431"
       height="1.3234886">
      <feGaussianBlur
         inkscape:collect="always"
         stdDeviation="23.915028"
         id="feGaussianBlur4194" />
    </filter>
  </defs>
  <sodipodi:namedview
     id="base"
     pagecolor="#ffffff"
     bordercolor="#666666"
     borderopacity="1.0"
     inkscape:pageopacity="1"
     inkscape:pageshadow="2"
     inkscape:zoom="0.029002474"
     inkscape:cx="1435.3365"
     inkscape:cy="648.4114"
     inkscape:document-units="mm"
     inkscape:current-layer="layer1"
     showgrid="false"
     inkscape:window-width="1366"
     inkscape:window-height="719"
     inkscape:window-x="0"
     inkscape:window-y="25"
     inkscape:window-maximized="1"
     showborder="true"
     inkscape:showpageshadow="false"
     showguides="true"
     fit-margin-top="50"
     fit-margin-left="50"
     fit-margin-right="50"
     fit-margin-bottom="50"
     objecttolerance="10"
     gridtolerance="10"
     guidetolerance="10"
     inkscape:snap-perpendicular="true"
     inkscape:snap-tangential="true"
     inkscape:measure-start="751.149,5540.63"
     inkscape:measure-end="2182.45,5816.75" />
  <metadata
     id="metadata5">
    <rdf:RDF>
      <cc:Work
         rdf:about="">
        <dc:format>image/svg+xml</dc:format>
        <dc:type
           rdf:resource="http://purl.org/dc/dcmitype/StillImage" />
        <dc:title></dc:title>
      </cc:Work>
    </rdf:RDF>
  </metadata>
  <g
     inkscape:label="Calque 1"
     inkscape:groupmode="layer"
     id="layer1"
     transform="translate(3638.188,2399.3353)">
    <path
       inkscape:connector-curvature="0"
       id="path4146"
       d="M -1132.2783,-2100.7759 C -1133.7583,-2043.3082 -1144.2358,-2044.47 -1116.2073,-2000.0722 -1088.1789,-1955.6744 -1068.4321,-1932.0235 -1078.2209,-1912.9975 -1088.0097,-1893.9715 -1086.0561,-1879.0393 -1075.737,-1841.2497 -1065.4178,-1803.4601 -1027.0086,-1765.0508 -1022.7409,-1757.938 -1018.4732,-1750.8252 -1014.2056,-1735.177 -1018.4732,-1776.4314 -1022.7409,-1817.6857 -1042.6568,-1826.2211 -1045.502,-1878.8559 -1048.3471,-1931.4908 -1049.4694,-1955.1922 -1062.5727,-1981.2805 -1075.676,-2007.3688 -1079.3127,-2006.3173 -1101.5279,-2056.3917 -1123.743,-2106.4661 -1132.2783,-2107.8887 -1132.2783,-2100.7759 Z"
       style="opacity:0.59600004;fill:#deaa87;fill-opacity:1;stroke:none;stroke-width:0.26458332px;stroke-linecap:butt;stroke-linejoin:miter;stroke-opacity:1;filter:url(#filter4192)" />
    <path
       inkscape:connector-curvature="0"
       id="path4120"
       d="M -1797.8986,-1691.9994 C -1743.8411,-1696.267 -1827.7724,-1703.3798 -1742.4186,-1694.8445 -1657.0648,-1686.3091 -1686.9386,-1689.1542 -1645.6842,-1697.6896 -1604.4299,-1706.225 -1598.7396,-1711.9152 -1598.7396,-1711.9152 -1598.7396,-1711.9152 -1607.275,-1711.9152 -1526.1889,-1711.9152 -1445.1028,-1711.9152 -1456.4833,-1716.1829 -1401.0033,-1720.4506 -1345.5233,-1724.7183 -1305.6915,-1717.6055 -1305.6915,-1717.6055 -1305.6915,-1717.6055 -1284.3531,-1717.6055 -1345.5233,-1700.5347 -1406.6936,-1683.464 -1369.4467,-1683.4088 -1440.8351,-1687.7316 -1512.2235,-1692.0545 -1517.6535,-1703.3798 -1534.7243,-1694.8445 -1551.795,-1686.3091 -1541.6984,-1675.8354 -1575.9093,-1677.5158 -1610.1202,-1679.1963 -1610.1202,-1679.1963 -1659.9099,-1674.9286 -1709.6996,-1670.6609 -1775.1375,-1674.9286 -1780.8278,-1679.1963 -1786.518,-1683.464 -1822.0821,-1673.506 -1822.0821,-1673.506 Z"
       style="fill:#deaa87;fill-opacity:0.67647059;stroke:none;stroke-width:0.26458332px;stroke-linecap:butt;stroke-linejoin:miter;stroke-opacity:1;filter:url(#filter2725)" />
    <path
       inkscape:connector-curvature="0"
       id="path4070"
       d="M -1887.52,-2010.6536 -1821.2028,-2043.6833 C -1821.2028,-2043.6833 -1784.5501,-2030.8545 -1759.2166,-2042.0925 -1733.8832,-2053.3305 -1698.8958,-2068.1533 -1698.8958,-2068.1533 L -1661.3324,-2087.472 -1639.5896,-2082.6901 -1605.8525,-2076.0915 -1607.275,-2053.3305 -1715.3899,-2012.0762 C -1715.3899,-2012.0762 -1711.1222,-2012.0762 -1752.3765,-2012.0762 -1793.6309,-2012.0762 -1787.0501,-2000.2561 -1822.3482,-1999.0533 -1857.6462,-1997.8505 -1887.52,-2010.6536 -1887.52,-2010.6536 Z"
       style="opacity:0.84799966;fill:#deaa87;fill-opacity:1;stroke:none;stroke-width:0.26458332px;stroke-linecap:butt;stroke-linejoin:miter;stroke-opacity:1;filter:url(#filter4066)" />
    <path
       style="fill:#deaa87;fill-opacity:1;stroke:none;stroke-width:0.26458332px;stroke-linecap:butt;stroke-linejoin:miter;stroke-opacity:1;filter:url(#filter3597)"
       d="M -1162.0126,-2086.0495 C -1163.4926,-2028.5818 -1173.9701,-2029.7436 -1145.9416,-1985.3458 -1117.9132,-1940.948 -1098.1664,-1917.2971 -1107.9552,-1898.2711 -1117.744,-1879.2451 -1115.7904,-1864.3129 -1105.4713,-1826.5233 -1095.1521,-1788.7337 -1056.7429,-1750.3244 -1052.4752,-1743.2116 -1048.2075,-1736.0988 -1043.9399,-1720.4506 -1048.2075,-1761.705 -1052.4752,-1802.9593 -1072.3911,-1811.4947 -1075.2363,-1864.1295 -1078.0814,-1916.7644 -1079.2037,-1940.4658 -1092.307,-1966.5541 -1105.4103,-1992.6424 -1109.047,-1991.5909 -1131.2622,-2041.6653 -1153.4773,-2091.7397 -1162.0126,-2093.1623 -1162.0126,-2086.0495 Z"
       id="path3195"
       inkscape:connector-curvature="0" />
    <path
       style="fill:#deaa87;fill-opacity:1;stroke:#000000;stroke-width:0.26458332px;stroke-linecap:butt;stroke-linejoin:miter;stroke-opacity:1;filter:url(#filter3191)"
       d="M -1544.6822,-1852.749 C -1517.4794,-1782.8874 -1511.3081,-1753.5563 -1517.3259,-1732.7358 -1523.3438,-1711.9152 -1527.6115,-1646.4773 -1527.6115,-1629.4066 -1527.6115,-1612.3358 -1509.1182,-1524.1368 -1509.1182,-1494.263 -1509.1182,-1464.3892 -1514.8084,-1411.7543 -1514.8084,-1411.7543 L -1500.5828,-1374.7677 -1529.034,-1364.8097 C -1529.034,-1364.8097 -1528.8629,-1399.2224 -1533.9274,-1447.454 -1538.992,-1495.6856 -1574.5561,-1515.6015 -1580.2463,-1546.8979 -1585.9366,-1578.1943 -1587.4285,-1601.2131 -1581.6689,-1639.3645 -1575.9093,-1677.5158 -1547.5274,-1673.506 -1543.2597,-1704.8024 -1538.992,-1736.0988 -1558.9079,-1795.8465 -1558.9079,-1795.8465 Z"
       id="path3025"
       inkscape:connector-curvature="0" />
    <path
       style="opacity:0.69300022;fill:#deaa87;fill-opacity:0.67647059;stroke:none;stroke-width:0.26458332px;stroke-linecap:butt;stroke-linejoin:miter;stroke-opacity:1;filter:url(#filter4142)"
       d="M -1753.7991,-1727.5635 C -1699.7416,-1731.8311 -1783.6729,-1738.9439 -1698.3191,-1730.4086 -1612.9653,-1721.8732 -1642.8391,-1724.7183 -1601.5847,-1733.2537 -1560.3304,-1741.7891 -1554.6401,-1747.4793 -1554.6401,-1747.4793 -1554.6401,-1747.4793 -1563.1755,-1747.4793 -1482.0894,-1747.4793 -1401.0033,-1747.4793 -1412.3838,-1751.747 -1356.9038,-1756.0147 -1301.4238,-1760.2824 -1261.592,-1753.1696 -1261.592,-1753.1696 -1261.592,-1753.1696 -1240.2536,-1753.1696 -1301.4238,-1736.0988 -1362.5941,-1719.0281 -1325.3472,-1718.9729 -1396.7356,-1723.2957 -1468.124,-1727.6186 -1473.554,-1738.9439 -1490.6248,-1730.4086 -1507.6955,-1721.8732 -1497.5989,-1711.3995 -1531.8098,-1713.0799 -1566.0207,-1714.7604 -1566.0207,-1714.7604 -1615.8104,-1710.4927 -1665.6001,-1706.225 -1731.038,-1710.4927 -1736.7283,-1714.7604 -1742.4185,-1719.0281 -1777.9826,-1709.0701 -1777.9826,-1709.0701 Z"
       id="path2539"
       inkscape:connector-curvature="0"
       transform="matrix(1,0,0,1.9254364,-27.989452,1633.5642)" />
    <path
       style="opacity:0.59100001;fill:#deaa87;fill-opacity:1;stroke:none;stroke-width:0.26458332px;stroke-linecap:butt;stroke-linejoin:miter;stroke-opacity:1;filter:url(#filter4116)"
       d="M -1843.2602,-1982.4883 -1776.943,-2015.518 C -1776.943,-2015.518 -1740.2903,-2002.6892 -1714.9568,-2013.9272 -1689.6234,-2025.1652 -1654.636,-2039.988 -1654.636,-2039.988 L -1617.0726,-2059.3067 -1595.3298,-2054.5248 -1561.5927,-2047.9262 -1563.0152,-2025.1652 -1671.1301,-1983.9109 C -1671.1301,-1983.9109 -1666.8624,-1983.9109 -1708.1167,-1983.9109 -1749.3711,-1983.9109 -1742.7903,-1972.0908 -1778.0884,-1970.888 -1813.3864,-1969.6852 -1843.2602,-1982.4883 -1843.2602,-1982.4883 Z"
       id="path1057"
       inkscape:connector-curvature="0" />
    <rect
       style="opacity:1;fill:#000000;fill-opacity:1;fill-rule:nonzero;stroke:none;stroke-width:2.14744544;stroke-linecap:round;stroke-linejoin:round;stroke-miterlimit:4;stroke-dasharray:none;stroke-dashoffset:0;stroke-opacity:1;paint-order:fill markers stroke"
       id="rect31406"
       width="0"
       height="269.29495"
       x="-2847.3008"
       y="443.31079"
       transform="matrix(0.83586933,0.54892847,-0.5646389,0.82533806,0,0)" />
    <path
       style="fill:none;stroke:#000000;stroke-width:5;stroke-linecap:butt;stroke-linejoin:miter;stroke-miterlimit:4;stroke-dasharray:none;stroke-opacity:1"
       d="M -2943.8396,-1655.5727 -2941.8091,-1627.146 -2537.7437,-1625.1155 -2528.1922,-1624.7435 -2526.577,-1650.0489 -2416.9302,-1646.4356 -2418.9607,-1625.1155 -2337.7415,-1623.085 -2355.0006,-1392.6256 -2303.2234,-1386.5342 -2311.3453,-1173.3339 H -2370.2292 L -2382.4121,-997.69737 -2405.7626,-597.69297 -2590.5362,-602.76927 V -658.80917 L -2784.447,-667.94627 V -605.81497 C -2784.447,-600.73867 -2979.373,-612.92167 -2979.373,-612.92167 L -3006.7844,-881.96007 -3045.3635,-1172.3186 -3085.9731,-1168.2577 -3121.5065,-1388.5647 -3074.8055,-1395.6714 C -3074.8055,-1395.6714 -3103.2322,-1621.0546 -3107.2932,-1616.9936 -3111.3541,-1612.9326 -3098.156,-1623.085 -3098.156,-1623.085 L -3048.4093,-1621.0546 -3047.394,-1653.5422 Z"
       id="path948"
       inkscape:connector-curvature="0"
       sodipodi:nodetypes="ccccccccccccccccccccccccscccc" />
    <path
       d="M 920.86002,2551.7052 V 2551.9566 H 1076.7728 V 2551.7052 Z"
       style="fill:#00ffff;stroke:#000000;stroke-width:0.08723133;stroke-linecap:round;stroke-linejoin:round;stroke-miterlimit:10;stroke-dasharray:none;stroke-opacity:1"
       id="path23379"
       inkscape:connector-curvature="0" />
    <path
       inkscape:connector-curvature="0"
       id="path4251"
       style="fill:#000000;fill-opacity:1;fill-rule:nonzero;stroke:none;stroke-width:0.27578396"
       d="M -1450.29,-970.03403 -1438.1519,-969.84069 -1437.694,-986.12721 -1406.4188,-985.24196 -1406.9091,-969.16545 -1397.7968,-968.96953 -1397.7312,-967.03117 -1408.8133,-967.37715 -1408.5357,-983.42291 -1435.8726,-984.01354 -1436.3609,-967.93732 -1450.4704,-968.27756 -1450.29,-970.03403" />
    <path
       inkscape:connector-curvature="0"
       id="path4705"
       style="fill:#00b6aa;fill-opacity:1;fill-rule:nonzero;stroke:none;stroke-width:0.27578396"
       d="M -1454.8097,-974.35459 -1455.5423,-942.02284 -1456.391,-941.90015 -1455.6867,-974.44516 -1454.8097,-974.35459" />
    <path
       inkscape:connector-curvature="0"
       id="path4709"
       style="fill:#00b6aa;fill-opacity:1;fill-rule:nonzero;stroke:none;stroke-width:0.27578396"
       d="M -1449.812,-974.21036 -1450.5476,-941.87817 -1451.4242,-941.96881 -1450.6921,-974.30059 -1449.812,-974.21036" />
    <path
       inkscape:connector-curvature="0"
       id="path4713"
       style="fill:#00b6aa;fill-opacity:1;fill-rule:nonzero;stroke:none;stroke-width:0.27578396"
       d="M -1455.2942,-974.7165 -1450.2966,-974.57227 -1450.1743,-973.72616 -1455.1715,-973.86762 -1455.2942,-974.7165" />
    <path
       inkscape:connector-curvature="0"
       id="path4717"
       style="fill:#00b6aa;fill-opacity:1;fill-rule:nonzero;stroke:none;stroke-width:0.27578396"
       d="M -1456.0263,-942.38482 -1451.0317,-942.24015 -1450.9094,-941.39404 -1456.1168,-941.50512 -1456.0263,-942.38482" />
    <path
       inkscape:connector-curvature="0"
       id="path5189"
       style="fill:#000000;fill-opacity:1;fill-rule:nonzero;stroke:none;stroke-width:0.27578396"
       d="M -1398.211,-944.90121 -1408.4131,-945.15696 -1408.6573,-928.90142 -1430.7874,-929.37805 -1430.5122,-945.42345 -1450.9164,-945.93495 -1450.7693,-947.90405 -1428.6393,-947.42457 -1428.8836,-931.16903 -1410.6893,-930.98739 -1410.4143,-947.03004 -1398.2736,-946.8399 -1398.211,-944.90121" />
    <path
       inkscape:connector-curvature="0"
       id="path6727"
       style="fill:none;stroke:#000000;stroke-width:0.21406075;stroke-linecap:round;stroke-linejoin:round;stroke-miterlimit:10;stroke-dasharray:none;stroke-opacity:1"
       d="M -1399.2406,-946.05084 -1398.7644,-968.1804 -1396.795,-968.03312 -1397.3046,-946.11335 Z" />
    <path
       inkscape:connector-curvature="0"
       id="path3626"
       d="M -1953.9404,-1255.2123 C -1953.145,-1254.5577 -1952.3279,-1253.8459 -1951.5431,-1253.217 -1949.2426,-1251.3735 -1946.9924,-1249.645 -1944.8169,-1248.0561 -1942.6414,-1246.4672 -1940.5408,-1245.018 -1938.5403,-1243.7344 -1937.5401,-1243.0926 -1936.5646,-1242.492 -1935.6175,-1241.9361 -1934.6704,-1241.3801 -1933.7514,-1240.8687 -1932.8637,-1240.4049 -1931.9759,-1239.9411 -1931.1195,-1239.5248 -1930.2974,-1239.1595 -1929.4753,-1238.7942 -1928.688,-1238.4794 -1927.9379,-1238.219 -1927.1877,-1237.9585 -1926.4746,-1237.7523 -1925.8026,-1237.603 -1925.1306,-1237.4537 -1924.4994,-1237.3614 -1923.9117,-1237.3296 -1923.3241,-1237.2978 -1922.7799,-1237.3264 -1922.2829,-1237.4185 -1921.7859,-1237.5106 -1921.3358,-1237.6665 -1920.9357,-1237.8888 -1920.1355,-1238.3333 -1919.38,-1238.8497 -1918.6655,-1239.4318 -1917.9511,-1240.0139 -1917.2783,-1240.6614 -1916.6435,-1241.3671 -1916.0086,-1242.0728 -1915.4119,-1242.8368 -1914.8503,-1243.6522 -1914.2887,-1244.4677 -1913.762,-1245.3345 -1913.2674,-1246.2459 -1912.7729,-1247.1572 -1912.3101,-1248.1134 -1911.8763,-1249.1067 -1911.4425,-1250.1 -1911.0375,-1251.1304 -1910.6583,-1252.1918 -1910.279,-1253.2531 -1909.9258,-1254.3453 -1909.5948,-1255.4608 -1909.2638,-1256.5764 -1908.9551,-1257.7156 -1908.6662,-1258.8715 -1908.0882,-1261.1831 -1907.5885,-1263.5612 -1907.1412,-1265.9506 -1906.6939,-1268.3401 -1906.2992,-1270.7408 -1905.9325,-1273.097 -1905.5657,-1275.4531 -1905.2264,-1277.765 -1904.8902,-1279.9766 -1904.554,-1282.1883 -1904.2206,-1284.2998 -1903.8649,-1286.2558 -1903.6871,-1287.2338 -1903.5371,-1288.1896 -1903.4138,-1289.129 -1903.2905,-1290.0685 -1903.1942,-1290.9919 -1903.1234,-1291.9046 -1903.0525,-1292.8173 -1903.0074,-1293.7193 -1902.9869,-1294.6171 -1902.9664,-1295.5149 -1902.9705,-1296.408 -1902.9983,-1297.3027 -1903.0261,-1298.1974 -1903.0773,-1299.0938 -1903.1512,-1299.9971 -1903.2252,-1300.9005 -1903.322,-1301.8111 -1903.4401,-1302.7349 -1903.6763,-1304.5826 -1903.9986,-1306.4829 -1904.3987,-1308.4834 -1904.7988,-1310.4839 -1905.2766,-1312.5841 -1905.824,-1314.8319 -1906.3713,-1317.0796 -1906.9883,-1319.475 -1907.6662,-1322.0645 -1909.0221,-1327.2435 -1910.6221,-1333.2002 -1912.4003,-1340.313 -1912.8448,-1342.0912 -1913.2564,-1343.9085 -1913.6416,-1345.769 -1914.0267,-1347.6295 -1914.3859,-1349.5336 -1914.7263,-1351.4855 -1915.407,-1355.3892 -1916.0126,-1359.4844 -1916.6016,-1363.8077 -1917.1906,-1368.1309 -1917.7631,-1372.6823 -1918.3772,-1377.4973 -1918.9912,-1382.3123 -1919.6467,-1387.3912 -1920.4024,-1392.7703 -1921.1581,-1398.1493 -1922.0139,-1403.8283 -1923.0281,-1409.8436 -1923.5351,-1412.8513 -1924.082,-1415.9429 -1924.6755,-1419.1232 -1925.2691,-1422.3035 -1925.9095,-1425.5725 -1926.6041,-1428.9345 -1927.2987,-1432.2964 -1928.0474,-1435.7513 -1928.8577,-1439.3039 -1929.668,-1442.8565 -1930.5398,-1446.5065 -1931.4803,-1450.2588 -1932.4208,-1454.011 -1933.4299,-1457.8655 -1934.5152,-1461.8265 -1935.6006,-1465.7875 -1936.7623,-1469.8553 -1938.007,-1474.0341 -1939.2518,-1478.2128 -1940.3909,-1482.225 -1941.4331,-1486.0912 -1942.4754,-1489.9574 -1943.4208,-1493.6776 -1944.2779,-1497.2729 -1945.1351,-1500.8683 -1945.9037,-1504.3388 -1946.593,-1507.7049 -1947.2824,-1511.0709 -1947.8927,-1514.333 -1948.4317,-1517.5115 -1948.9707,-1520.69 -1949.4385,-1523.7852 -1949.8445,-1526.8179 -1950.2505,-1529.8506 -1950.5944,-1532.8207 -1950.8848,-1535.7491 -1951.1751,-1538.6776 -1951.412,-1541.5643 -1951.6041,-1544.4303 -1951.7962,-1547.2962 -1951.9436,-1550.1412 -1952.0547,-1552.9863 -1952.1659,-1555.8314 -1952.2407,-1558.677 -1952.2883,-1561.5429 -1952.3359,-1564.4089 -1952.3562,-1567.2956 -1952.3576,-1570.224 -1952.3603,-1576.081 -1952.2881,-1582.1046 -1952.2103,-1588.4617 -1952.1325,-1594.8188 -1952.0489,-1601.5091 -1952.0294,-1608.6997 -1952.0197,-1612.295 -1952.0259,-1616.0153 -1952.0568,-1619.8815 -1952.0877,-1623.7477 -1952.1436,-1627.7598 -1952.2325,-1631.9386 -1952.3214,-1636.1174 -1952.4656,-1640.1573 -1952.6583,-1644.0717 -1952.8511,-1647.9862 -1953.0925,-1651.7752 -1953.3745,-1655.4524 -1953.6566,-1659.1297 -1953.9796,-1662.6952 -1954.3362,-1666.1624 -1954.6929,-1669.6295 -1955.0832,-1672.9986 -1955.5,-1676.2827 -1955.9168,-1679.5668 -1956.3596,-1682.7663 -1956.8219,-1685.8945 -1957.2841,-1689.0227 -1957.7658,-1692.0796 -1958.259,-1695.079 -1959.2453,-1701.0776 -1960.2787,-1706.8455 -1961.3012,-1712.4913 -1962.3237,-1718.1371 -1963.3348,-1723.6608 -1964.2767,-1729.1704 -1964.7477,-1731.9252 -1965.2017,-1734.6767 -1965.6306,-1737.4381 -1966.0596,-1740.1995 -1966.4634,-1742.9707 -1966.8357,-1745.7658 -1967.2081,-1748.5609 -1967.5485,-1751.3797 -1967.8496,-1754.2356 -1968.1507,-1757.0914 -1968.4126,-1759.9848 -1968.6279,-1762.9286 -1968.8432,-1765.8723 -1969.0121,-1768.8667 -1969.1271,-1771.9254 -1969.242,-1774.9841 -1969.3033,-1778.107 -1969.3033,-1781.3078 -1969.3033,-1784.5086 -1969.3365,-1787.6314 -1969.4066,-1790.6974 -1969.4768,-1793.7634 -1969.5839,-1796.7725 -1969.7312,-1799.7454 -1969.8784,-1802.7184 -1970.0657,-1805.6554 -1970.297,-1808.5769 -1970.5283,-1811.4985 -1970.8036,-1814.4046 -1971.1259,-1817.3165 -1971.4482,-1820.2283 -1971.8178,-1823.1458 -1972.238,-1826.0896 -1972.6582,-1829.0333 -1973.1293,-1832.0034 -1973.6544,-1835.0208 -1974.1796,-1838.0382 -1974.7585,-1841.1025 -1975.3954,-1844.2352 -1976.0324,-1847.3679 -1976.7274,-1850.5687 -1977.4832,-1853.8584 -1978.2389,-1857.1481 -1979.0553,-1860.5271 -1979.9367,-1864.0154 -1980.8182,-1867.5037 -1981.7643,-1871.1016 -1982.7784,-1874.8303 -1983.7926,-1878.5589 -1984.8751,-1882.4184 -1986.0289,-1886.429 -1987.1826,-1890.4397 -1988.4079,-1894.6019 -1989.7083,-1898.9363 -1992.3089,-1907.605 -1995.2094,-1916.9629 -1998.4379,-1927.1764 -2001.6665,-1937.39 -2005.2229,-1948.4588 -2009.135,-1960.5506 -2010.113,-1963.5736 -2011.0214,-1966.4688 -2011.8655,-1969.2431 -2012.7097,-1972.0174 -2013.4896,-1974.6709 -2014.2101,-1977.2106 -2014.9306,-1979.7502 -2015.5916,-1982.1764 -2016.1986,-1984.4954 -2016.8056,-1986.8144 -2017.3585,-1989.0266 -2017.8621,-1991.1389 -2018.3657,-1993.2512 -2018.8201,-1995.2634 -2019.2305,-1997.183 -2019.6409,-1999.1026 -2020.0069,-2000.9297 -2020.3343,-2002.6705 -2020.6616,-2004.4114 -2020.9501,-2006.0662 -2021.2045,-2007.6423 -2021.459,-2009.2184 -2021.6794,-2010.7159 -2021.8711,-2012.1413 -2022.2546,-2014.9919 -2022.5231,-2017.5551 -2022.7166,-2019.8865 -2022.91,-2022.218 -2023.0287,-2024.3176 -2023.1134,-2026.2417 -2023.1982,-2028.1658 -2023.2489,-2029.9142 -2023.3062,-2031.5427 -2023.3635,-2033.1712 -2023.4271,-2034.68 -2023.5382,-2036.1248 -2023.6493,-2037.5696 -2023.8077,-2038.9501 -2024.054,-2040.323 -2024.1771,-2041.0095 -2024.3221,-2041.6939 -2024.4942,-2042.3834 -2024.6664,-2043.0728 -2024.866,-2043.7672 -2025.0973,-2044.4736 -2025.3286,-2045.1801 -2025.592,-2045.8984 -2025.8926,-2046.6358 -2026.1932,-2047.3732 -2026.531,-2048.1298 -2026.9111,-2048.9121 -2027.2913,-2049.6945 -2027.7136,-2050.5028 -2028.1834,-2051.344 -2028.6532,-2052.1852 -2029.1703,-2053.0592 -2029.7399,-2053.9733 -2030.8791,-2055.8015 -2032.2282,-2057.7895 -2033.8275,-2059.9931 -2035.4269,-2062.1968 -2037.2766,-2064.616 -2039.4174,-2067.3069 -2041.5581,-2069.9978 -2043.9898,-2072.9605 -2046.7533,-2076.2505 -2049.5168,-2079.5406 -2052.6119,-2083.158 -2056.0794,-2087.1589 -2056.0794,-2087.1589 -2055.8571,-2087.4036 -2055.4236,-2087.7981 -2054.9902,-2088.1927 -2054.3459,-2088.7374 -2053.5013,-2089.3376 -2053.0789,-2089.6377 -2052.6063,-2089.9512 -2052.0853,-2090.2673 -2051.5643,-2090.5833 -2050.9948,-2090.9014 -2050.3779,-2091.2098 -2049.7611,-2091.5182 -2049.0972,-2091.8174 -2048.3874,-2092.0945 -2047.6775,-2092.3717 -2046.9215,-2092.6272 -2046.1213,-2092.8495 -2045.3211,-2093.0718 -2044.4769,-2093.2607 -2043.5892,-2093.4045 -2042.7015,-2093.5483 -2041.7706,-2093.6465 -2040.7982,-2093.6882 -2039.8257,-2093.7299 -2038.8114,-2093.7149 -2037.757,-2093.6309 -2036.7026,-2093.5468 -2035.6081,-2093.394 -2034.4745,-2093.1606 -2033.3409,-2092.9272 -2032.1685,-2092.613 -2030.9584,-2092.2066 -2029.7484,-2091.8003 -2028.5007,-2091.3017 -2027.2171,-2090.6987 -2025.9334,-2090.0958 -2024.6136,-2089.3887 -2023.2592,-2088.5655 -2021.9047,-2087.7424 -2020.5156,-2086.8032 -2019.093,-2085.7363 -2017.6705,-2084.6693 -2016.2921,-2083.7362 -2014.9542,-2082.9235 -2013.6164,-2082.1108 -2012.3193,-2081.4187 -2011.0579,-2080.8353 -2009.7964,-2080.2518 -2008.5708,-2079.7769 -2007.3774,-2079.3976 -2006.1841,-2079.0184 -2005.0229,-2078.7347 -2003.8893,-2078.5346 -2002.7557,-2078.3346 -2001.6497,-2078.2182 -2000.5675,-2078.1724 -1999.4853,-2078.1265 -1998.427,-2078.1516 -1997.3879,-2078.2349 -1996.3487,-2078.3182 -1995.3289,-2078.4597 -1994.3245,-2078.6473 -1993.3201,-2078.8348 -1992.3311,-2079.0684 -1991.3531,-2079.3351 -1990.3751,-2079.6018 -1989.4078,-2079.902 -1988.4479,-2080.2229 -1987.4879,-2080.5438 -1986.5352,-2080.8852 -1985.585,-2081.2352 -1983.6845,-2081.9354 -1981.7951,-2082.6691 -1979.8835,-2083.3359 -1978.9277,-2083.6693 -1977.9664,-2083.9863 -1976.9953,-2084.2738 -1976.0243,-2084.5614 -1975.0434,-2084.8198 -1974.0487,-2085.0365 -1973.0541,-2085.2533 -1972.0456,-2085.4283 -1971.0189,-2085.5492 -1969.9923,-2085.67 -1968.9476,-2085.7363 -1967.8806,-2085.7363 -1966.8137,-2085.7363 -1965.63,-2085.7698 -1964.3439,-2085.8355 -1963.0578,-2085.9011 -1961.6695,-2085.9993 -1960.1927,-2086.1285 -1957.2392,-2086.3869 -1953.9329,-2086.7699 -1950.3877,-2087.27 -1946.8423,-2087.7701 -1943.0578,-2088.3871 -1939.1485,-2089.1123 -1937.1939,-2089.4749 -1935.2081,-2089.8645 -1933.2052,-2090.2802 -1931.2023,-2090.6959 -1929.1823,-2091.1378 -1927.1596,-2091.6046 -1925.1369,-2092.0714 -1923.1115,-2092.5632 -1921.0975,-2093.079 -1919.0834,-2093.5947 -1917.0809,-2094.1343 -1915.104,-2094.697 -1913.1271,-2095.2596 -1911.1758,-2095.845 -1909.2646,-2096.4524 -1907.3534,-2097.0598 -1905.482,-2097.6895 -1903.6649,-2098.3396 -1901.8478,-2098.9898 -1900.0853,-2099.6606 -1898.3908,-2100.3514 -1896.6963,-2101.0422 -1895.0699,-2101.7527 -1893.5265,-2102.482 -1891.9831,-2103.2114 -1890.5222,-2103.9595 -1889.1583,-2104.7253 -1887.7944,-2105.4911 -1886.5278,-2106.2748 -1885.372,-2107.075 -1884.7941,-2107.4751 -1884.1842,-2107.867 -1883.5421,-2108.2506 -1882.9,-2108.6342 -1882.2254,-2109.0092 -1881.5185,-2109.3767 -1880.1046,-2110.1116 -1878.5604,-2110.8148 -1876.8836,-2111.4871 -1875.2068,-2112.1595 -1873.3975,-2112.8015 -1871.4529,-2113.4141 -1869.5084,-2114.0268 -1867.4287,-2114.6103 -1865.2114,-2115.166 -1862.9942,-2115.7217 -1860.6394,-2116.2494 -1858.1447,-2116.7509 -1855.65,-2117.2524 -1853.0153,-2117.7276 -1850.2382,-2118.1777 -1847.4611,-2118.6278 -1844.5418,-2119.0526 -1841.4775,-2119.4541 -1838.4132,-2119.8556 -1835.2045,-2120.2338 -1831.8481,-2120.5894 -1828.4918,-2120.9451 -1824.9878,-2121.2784 -1821.3345,-2121.5909 -1817.6812,-2121.9035 -1813.8785,-2122.1951 -1809.9233,-2122.4673 -1805.9682,-2122.7396 -1801.8608,-2122.9927 -1797.599,-2123.2275 -1793.3373,-2123.4623 -1788.921,-2123.6791 -1784.3476,-2123.8792 -1775.201,-2124.2793 -1765.4262,-2124.6126 -1755.0042,-2124.8904 -1744.5823,-2125.1683 -1733.5129,-2125.3906 -1721.7768,-2125.5684 -1718.8428,-2125.6129 -1716.0773,-2125.6932 -1713.4724,-2125.8077 -1710.8675,-2125.9222 -1708.4232,-2126.0705 -1706.1333,-2126.2506 -1703.8433,-2126.4307 -1701.7073,-2126.6424 -1699.7182,-2126.8836 -1697.729,-2127.1249 -1695.8867,-2127.3959 -1694.1842,-2127.6939 -1692.4817,-2127.9919 -1690.9193,-2128.3172 -1689.4893,-2128.6675 -1688.0594,-2129.0178 -1686.762,-2129.3928 -1685.5904,-2129.7909 -1684.4187,-2130.1891 -1683.3728,-2130.6102 -1682.4453,-2131.0518 -1681.5179,-2131.4935 -1680.7088,-2131.9561 -1680.0114,-2132.4368 -1679.314,-2132.9174 -1678.7281,-2133.4165 -1678.2466,-2133.9318 -1678.0059,-2134.1894 -1677.7911,-2134.4508 -1677.6017,-2134.7162 -1677.4123,-2134.9817 -1677.2481,-2135.2512 -1677.1082,-2135.5239 -1676.9683,-2135.7966 -1676.853,-2136.0728 -1676.7609,-2136.3523 -1676.6688,-2136.6317 -1676.6003,-2136.9142 -1676.5542,-2137.1998 -1676.4621,-2137.771 -1676.46,-2138.354 -1676.5413,-2138.9464 -1676.6226,-2139.5389 -1676.787,-2140.1411 -1677.0276,-2140.7505 -1677.2008,-2141.1893 -1677.4571,-2141.6355 -1677.7066,-2142.0811 -1814.6843,-2141.7841 -2084.2983,-2141.2497 -2085.0833,-2141.9855 -2086.0827,-2142.9222 -2068.2032,-2038.6611 -2068.2032,-2038.6611 L -2081.5791,-2017.481 -2057.7041,-1859.7991 C -2057.7041,-1859.7991 -2036.0296,-1841.519 -2038.9063,-1841.9697 -2041.7829,-1842.4204 -2023.9485,-1747.4515 -2023.9485,-1747.4515 L -2038.5342,-1727.1747 -2015.5134,-1570.8834 -1995.8975,-1553.3884 -1981.9268,-1435.8002 -1994.6976,-1414.9224 -1977.9141,-1297.3105 -1957.9985,-1280.7239 Z"
       style="fill:#e9c6af;stroke:none;stroke-width:3.00000024;stroke-linecap:butt;stroke-linejoin:miter;stroke-miterlimit:4;stroke-dasharray:none;stroke-opacity:1;filter:url(#filter3918)" />
    <rect
       style="opacity:1;fill:#00ffff;fill-opacity:1;fill-rule:nonzero;stroke:none;stroke-width:7.32533264;stroke-linecap:round;stroke-linejoin:round;stroke-miterlimit:4;stroke-dasharray:none;stroke-dashoffset:0;stroke-opacity:1;paint-order:fill markers stroke"
       id="rect31102"
       width="400"
       height="14.812006"
       x="-2935.0059"
       y="-1624.7506" />
    <rect
       style="opacity:1;fill:#00ffff;fill-opacity:1;fill-rule:nonzero;stroke:none;stroke-width:1.96846187;stroke-linecap:round;stroke-linejoin:round;stroke-miterlimit:4;stroke-dasharray:none;stroke-dashoffset:0;stroke-opacity:1;paint-order:fill markers stroke"
       id="rect31126"
       width="31.5"
       height="22.5"
       x="-2750.7559"
       y="-1409.9387" />
    <path
       style="fill:#000000;fill-opacity:1;stroke:none;stroke-width:0.36661351px;stroke-linecap:butt;stroke-linejoin:miter;stroke-opacity:1"
       d="M -2784.5474,-1410.4265 -2682.3696,-1410.269 -2622.8093,-1198.8561 -2626.8093,-1194.8561 Z"
       id="path31130"
       inkscape:connector-curvature="0"
       sodipodi:nodetypes="ccccc" />
    <g
       id="g31188"
       transform="matrix(-0.82648214,-0.02121075,0.02121075,-0.82648214,-1883.4601,-2013.45)">
      <rect
         style="opacity:1;fill:#b3b3b3;fill-opacity:1;fill-rule:nonzero;stroke:none;stroke-width:0.14502887;stroke-linecap:round;stroke-linejoin:round;stroke-miterlimit:4;stroke-dasharray:none;stroke-dashoffset:0;stroke-opacity:1;paint-order:fill markers stroke"
         id="rect31182"
         width="75"
         height="54"
         x="-149.34027"
         y="-15.511371" />
      <rect
         style="opacity:1;fill:#0e0e0e;fill-opacity:1;fill-rule:nonzero;stroke:none;stroke-width:0.15867057;stroke-linecap:round;stroke-linejoin:round;stroke-miterlimit:4;stroke-dasharray:none;stroke-dashoffset:0;stroke-opacity:1;paint-order:fill markers stroke"
         id="rect31184"
         width="55"
         height="41"
         x="-139.34027"
         y="-9.0113707"
         rx="3.6286478"
         ry="3.6286478" />
    </g>
    <g
       transform="matrix(-1.0798532,0.12111746,-0.12146058,-1.0819387,-1679.8484,-1770.3569)"
       id="g31194">
      <rect
         y="-15.511371"
         x="-149.34027"
         height="54"
         width="75"
         id="rect31190"
         style="opacity:1;fill:#b3b3b3;fill-opacity:1;fill-rule:nonzero;stroke:none;stroke-width:0.14502887;stroke-linecap:round;stroke-linejoin:round;stroke-miterlimit:4;stroke-dasharray:none;stroke-dashoffset:0;stroke-opacity:1;paint-order:fill markers stroke" />
      <rect
         ry="2.7554877"
         rx="2.7608476"
         y="-9.0113707"
         x="-139.34027"
         height="41"
         width="55"
         id="rect31192"
         style="opacity:1;fill:#0e0e0e;fill-opacity:1;fill-rule:nonzero;stroke:none;stroke-width:0.15867057;stroke-linecap:round;stroke-linejoin:round;stroke-miterlimit:4;stroke-dasharray:none;stroke-dashoffset:0;stroke-opacity:1;paint-order:fill markers stroke" />
    </g>
    <g
       id="g31200"
       transform="matrix(-0.92499976,0.13637477,-0.12597326,-0.8726754,-1772.8808,-2028.7358)">
      <rect
         style="opacity:1;fill:#b3b3b3;fill-opacity:1;fill-rule:nonzero;stroke:none;stroke-width:0.14502887;stroke-linecap:round;stroke-linejoin:round;stroke-miterlimit:4;stroke-dasharray:none;stroke-dashoffset:0;stroke-opacity:1;paint-order:fill markers stroke"
         id="rect31196"
         width="75"
         height="54"
         x="-149.34027"
         y="-15.511371" />
      <rect
         style="opacity:1;fill:#0e0e0e;fill-opacity:1;fill-rule:nonzero;stroke:none;stroke-width:0.15867057;stroke-linecap:round;stroke-linejoin:round;stroke-miterlimit:4;stroke-dasharray:none;stroke-dashoffset:0;stroke-opacity:1;paint-order:fill markers stroke"
         id="rect31198"
         width="55"
         height="41"
         x="-139.34027"
         y="-9.0113707"
         rx="3.2084434"
         ry="3.4025772" />
    </g>
    <g
       transform="rotate(172.86769,-766.89861,-847.33098)"
       id="g31206">
      <rect
         y="-15.511371"
         x="-149.34027"
         height="54"
         width="75"
         id="rect31202"
         style="opacity:1;fill:#b3b3b3;fill-opacity:1;fill-rule:nonzero;stroke:none;stroke-width:0.14502887;stroke-linecap:round;stroke-linejoin:round;stroke-miterlimit:4;stroke-dasharray:none;stroke-dashoffset:0;stroke-opacity:1;paint-order:fill markers stroke" />
      <rect
         ry="3"
         rx="3"
         y="-9.0113707"
         x="-139.34027"
         height="41"
         width="55"
         id="rect31204"
         style="opacity:1;fill:#0e0e0e;fill-opacity:1;fill-rule:nonzero;stroke:none;stroke-width:0.15867057;stroke-linecap:round;stroke-linejoin:round;stroke-miterlimit:4;stroke-dasharray:none;stroke-dashoffset:0;stroke-opacity:1;paint-order:fill markers stroke" />
    </g>
    <g
       transform="matrix(-0.69659061,-0.01787723,0.01787723,-0.69659061,-1782.416,-1681.649)"
       id="g31212">
      <rect
         y="-15.511371"
         x="-149.34027"
         height="54"
         width="75"
         id="rect31208"
         style="opacity:1;fill:#b3b3b3;fill-opacity:1;fill-rule:nonzero;stroke:none;stroke-width:0.14502887;stroke-linecap:round;stroke-linejoin:round;stroke-miterlimit:4;stroke-dasharray:none;stroke-dashoffset:0;stroke-opacity:1;paint-order:fill markers stroke" />
      <rect
         ry="4.3052726"
         rx="4.3052726"
         y="-9.0113707"
         x="-139.34027"
         height="41"
         width="55"
         id="rect31210"
         style="opacity:1;fill:#0e0e0e;fill-opacity:1;fill-rule:nonzero;stroke:none;stroke-width:0.15867057;stroke-linecap:round;stroke-linejoin:round;stroke-miterlimit:4;stroke-dasharray:none;stroke-dashoffset:0;stroke-opacity:1;paint-order:fill markers stroke" />
    </g>
    <g
       id="g31218"
       transform="rotate(172.85107,-773.21437,-893.41306)">
      <rect
         style="opacity:1;fill:#b3b3b3;fill-opacity:1;fill-rule:nonzero;stroke:none;stroke-width:0.14502887;stroke-linecap:round;stroke-linejoin:round;stroke-miterlimit:4;stroke-dasharray:none;stroke-dashoffset:0;stroke-opacity:1;paint-order:fill markers stroke"
         id="rect31214"
         width="75"
         height="54"
         x="-149.34027"
         y="-15.511371" />
      <rect
         style="opacity:1;fill:#0e0e0e;fill-opacity:1;fill-rule:nonzero;stroke:none;stroke-width:0.15867057;stroke-linecap:round;stroke-linejoin:round;stroke-miterlimit:4;stroke-dasharray:none;stroke-dashoffset:0;stroke-opacity:1;paint-order:fill markers stroke"
         id="rect31216"
         width="55"
         height="41"
         x="-139.34027"
         y="-9.0113707"
         rx="3"
         ry="3" />
    </g>
    <g
       transform="matrix(-0.88139444,-0.02262001,0.02262001,-0.88139444,-1608.9881,-1421.1672)"
       id="g31224">
      <rect
         y="-15.511371"
         x="-149.34027"
         height="54"
         width="75"
         id="rect31220"
         style="opacity:1;fill:#b3b3b3;fill-opacity:1;fill-rule:nonzero;stroke:none;stroke-width:0.14502887;stroke-linecap:round;stroke-linejoin:round;stroke-miterlimit:4;stroke-dasharray:none;stroke-dashoffset:0;stroke-opacity:1;paint-order:fill markers stroke" />
      <rect
         ry="3.4025772"
         rx="3.4025772"
         y="-9.0113707"
         x="-139.34027"
         height="41"
         width="55"
         id="rect31222"
         style="opacity:1;fill:#0e0e0e;fill-opacity:1;fill-rule:nonzero;stroke:none;stroke-width:0.15867057;stroke-linecap:round;stroke-linejoin:round;stroke-miterlimit:4;stroke-dasharray:none;stroke-dashoffset:0;stroke-opacity:1;paint-order:fill markers stroke" />
    </g>
    <g
       id="g31230"
       transform="matrix(-0.27723085,-0.77897267,0.88419766,-0.32131921,-1133.1579,-1947.8394)">
      <rect
         style="opacity:1;fill:#b3b3b3;fill-opacity:1;fill-rule:nonzero;stroke:none;stroke-width:0.14502887;stroke-linecap:round;stroke-linejoin:round;stroke-miterlimit:4;stroke-dasharray:none;stroke-dashoffset:0;stroke-opacity:1;paint-order:fill markers stroke"
         id="rect31226"
         width="75"
         height="54"
         x="-149.34027"
         y="-15.511371" />
      <rect
         style="opacity:1;fill:#0e0e0e;fill-opacity:1;fill-rule:nonzero;stroke:none;stroke-width:0.15867057;stroke-linecap:round;stroke-linejoin:round;stroke-miterlimit:4;stroke-dasharray:none;stroke-dashoffset:0;stroke-opacity:1;paint-order:fill markers stroke"
         id="rect31228"
         width="55"
         height="41"
         x="-139.34027"
         y="-9.0113707"
         rx="3.6286478"
         ry="3.188632" />
    </g>
    <g
       transform="matrix(-0.73988778,-0.0189884,0.0189884,-0.73988778,-1820.0242,-1378.0677)"
       id="g31236">
      <rect
         y="-15.511371"
         x="-149.34027"
         height="54"
         width="75"
         id="rect31232"
         style="opacity:1;fill:#b3b3b3;fill-opacity:1;fill-rule:nonzero;stroke:none;stroke-width:0.14502887;stroke-linecap:round;stroke-linejoin:round;stroke-miterlimit:4;stroke-dasharray:none;stroke-dashoffset:0;stroke-opacity:1;paint-order:fill markers stroke" />
      <rect
         ry="4.0533342"
         rx="4.0533342"
         y="-9.0113707"
         x="-139.34027"
         height="41"
         width="55"
         id="rect31234"
         style="opacity:1;fill:#0e0e0e;fill-opacity:1;fill-rule:nonzero;stroke:none;stroke-width:0.15867057;stroke-linecap:round;stroke-linejoin:round;stroke-miterlimit:4;stroke-dasharray:none;stroke-dashoffset:0;stroke-opacity:1;paint-order:fill markers stroke" />
    </g>
    <g
       id="g31242"
       transform="matrix(-0.31910938,-0.78610986,0.78610986,-0.31910938,-1183.3225,-2097.7582)">
      <rect
         style="opacity:1;fill:#b3b3b3;fill-opacity:1;fill-rule:nonzero;stroke:none;stroke-width:0.14502887;stroke-linecap:round;stroke-linejoin:round;stroke-miterlimit:4;stroke-dasharray:none;stroke-dashoffset:0;stroke-opacity:1;paint-order:fill markers stroke"
         id="rect31238"
         width="75"
         height="54"
         x="-149.34027"
         y="-15.511371" />
      <rect
         style="opacity:1;fill:#0e0e0e;fill-opacity:1;fill-rule:nonzero;stroke:none;stroke-width:0.15867057;stroke-linecap:round;stroke-linejoin:round;stroke-miterlimit:4;stroke-dasharray:none;stroke-dashoffset:0;stroke-opacity:1;paint-order:fill markers stroke"
         id="rect31240"
         width="55"
         height="41"
         x="-139.34027"
         y="-9.0113707"
         rx="3.5360262"
         ry="3.5360262" />
    </g>
    <path
       sodipodi:nodetypes="cccc"
       inkscape:connector-curvature="0"
       id="path31246"
       d="M -3510.9045,-1064.6076 H -3430.6707 L -3295.9585,-641.71607 Z"
       style="fill:#333333;stroke:none;stroke-width:0.42003673px;stroke-linecap:butt;stroke-linejoin:miter;stroke-opacity:1" />
    <g
       transform="rotate(5.5929227,-8529.2747,-1559.0218)"
       id="g31260">
      <rect
         transform="rotate(-15)"
         style="opacity:1;fill:#000000;fill-opacity:1;fill-rule:nonzero;stroke:none;stroke-width:0.25204745;stroke-linecap:round;stroke-linejoin:round;stroke-miterlimit:4;stroke-dasharray:none;stroke-dashoffset:0;stroke-opacity:1;paint-order:fill markers stroke"
         id="rect31248"
         width="97.599998"
         height="58.299999"
         x="-2878.1885"
         y="-2027.6296" />
      <rect
         transform="rotate(-15)"
         y="-2024.4796"
         x="-2875.3887"
         height="52"
         width="92"
         id="rect31250"
         style="opacity:1;fill:#cccccc;fill-opacity:1;fill-rule:nonzero;stroke:none;stroke-width:0.23110998;stroke-linecap:round;stroke-linejoin:round;stroke-miterlimit:4;stroke-dasharray:none;stroke-dashoffset:0;stroke-opacity:1;paint-order:fill markers stroke" />
      <rect
         transform="rotate(-15)"
         y="-2031.6296"
         x="-2879.3887"
         height="2"
         width="100"
         id="rect31252"
         style="opacity:1;fill:#000000;fill-opacity:1;fill-rule:nonzero;stroke:none;stroke-width:0.02392274;stroke-linecap:round;stroke-linejoin:round;stroke-miterlimit:4;stroke-dasharray:none;stroke-dashoffset:0;stroke-opacity:1;paint-order:fill markers stroke" />
      <rect
         style="opacity:1;fill:#000000;fill-opacity:1;fill-rule:nonzero;stroke:none;stroke-width:0.01947904;stroke-linecap:round;stroke-linejoin:round;stroke-miterlimit:4;stroke-dasharray:none;stroke-dashoffset:0;stroke-opacity:1;paint-order:fill markers stroke"
         id="rect31254"
         width="66.300003"
         height="2"
         x="-2031.6296"
         y="2879.3887"
         transform="rotate(75)" />
      <rect
         transform="rotate(75)"
         y="2777.3887"
         x="-2031.6296"
         height="2"
         width="66.300003"
         id="rect31256"
         style="opacity:1;fill:#000000;fill-opacity:1;fill-rule:nonzero;stroke:none;stroke-width:0.01947904;stroke-linecap:round;stroke-linejoin:round;stroke-miterlimit:4;stroke-dasharray:none;stroke-dashoffset:0;stroke-opacity:1;paint-order:fill markers stroke" />
      <rect
         transform="rotate(-15)"
         style="opacity:1;fill:#000000;fill-opacity:1;fill-rule:nonzero;stroke:none;stroke-width:0.02392274;stroke-linecap:round;stroke-linejoin:round;stroke-miterlimit:4;stroke-dasharray:none;stroke-dashoffset:0;stroke-opacity:1;paint-order:fill markers stroke"
         id="rect31258"
         width="100"
         height="2"
         x="-2879.3887"
         y="-1967.3296" />
    </g>
    <path
       style="fill:#333333;stroke:none;stroke-width:0.18006697px;stroke-linecap:butt;stroke-linejoin:miter;stroke-opacity:1"
       d="M -3447.4937,-959.0403 -3399.2259,-947.0137 -3527.5908,-849.8096 Z"
       id="path31262"
       inkscape:connector-curvature="0"
       sodipodi:nodetypes="cccc" />
    <path
       style="fill:#000000;fill-opacity:1;stroke:none;stroke-width:0.42003673px;stroke-linecap:butt;stroke-linejoin:miter;stroke-opacity:1"
       d="M -3470.8715,-1631.3762 -3404.6937,-1631.1695 -3397.2747,-1614.6243 -3528.3257,-1351.713 -3531.6761,-1350.2245 -3477.0569,-1614.5232 Z"
       id="path31304"
       inkscape:connector-curvature="0"
       sodipodi:nodetypes="ccccccc" />
    <rect
       style="opacity:1;fill:#000000;fill-opacity:1;fill-rule:nonzero;stroke:none;stroke-width:8.05287266;stroke-linecap:round;stroke-linejoin:round;stroke-miterlimit:4;stroke-dasharray:none;stroke-dashoffset:0;stroke-opacity:1;paint-order:fill markers stroke"
       id="rect31306"
       width="111.047"
       height="66.48513"
       x="-3588.188"
       y="-1360.4128" />
    <rect
       y="-1630.8884"
       x="-3451.0798"
       height="22.5"
       width="31.5"
       id="rect31308"
       style="opacity:1;fill:#00ffff;fill-opacity:1;fill-rule:nonzero;stroke:none;stroke-width:1.96846187;stroke-linecap:round;stroke-linejoin:round;stroke-miterlimit:4;stroke-dasharray:none;stroke-dashoffset:0;stroke-opacity:1;paint-order:fill markers stroke" />
    <path
       sodipodi:nodetypes="ccccccc"
       inkscape:connector-curvature="0"
       id="path31310"
       d="M -3470.8715,-1631.3762 -3404.6937,-1631.1695 -3397.2747,-1614.6243 -3317.2663,-1343.2355 -3320.6167,-1341.747 -3477.0569,-1614.5232 Z"
       style="fill:#000000;fill-opacity:1;stroke:none;stroke-width:0.42003673px;stroke-linecap:butt;stroke-linejoin:miter;stroke-opacity:1" />
    <rect
       y="-1356.3203"
       x="-3581.4644"
       height="58.299999"
       width="97.599998"
       id="rect31312"
       style="opacity:1;fill:#808080;fill-opacity:1;fill-rule:nonzero;stroke:none;stroke-width:7.06959152;stroke-linecap:round;stroke-linejoin:round;stroke-miterlimit:4;stroke-dasharray:none;stroke-dashoffset:0;stroke-opacity:1;paint-order:fill markers stroke" />
    <rect
       style="opacity:1;fill:#1a1a1a;fill-opacity:1;fill-rule:nonzero;stroke:none;stroke-width:1.82091188;stroke-linecap:round;stroke-linejoin:round;stroke-miterlimit:4;stroke-dasharray:none;stroke-dashoffset:0;stroke-opacity:1;paint-order:fill markers stroke"
       id="rect31384"
       width="5.653646"
       height="4"
       x="-2628.4629"
       y="-1198.8561" />
    <rect
       transform="matrix(0.94789207,0.31859163,-0.33646192,0.94169707,0,0)"
       y="-297.04263"
       x="-2872.4292"
       height="224.24336"
       width="4.2489514"
       id="rect31408"
       style="opacity:1;fill:#000000;fill-opacity:1;fill-rule:nonzero;stroke:none;stroke-width:2.14744544;stroke-linecap:round;stroke-linejoin:round;stroke-miterlimit:4;stroke-dasharray:none;stroke-dashoffset:0;stroke-opacity:1;paint-order:fill markers stroke" />
    <path
       style="fill:none;stroke:#000000;stroke-width:3;stroke-linecap:butt;stroke-linejoin:miter;stroke-opacity:1"
       d="M -2628.4629,-1194.8561 -2794.9696,-983.44316"
       id="path31416"
       inkscape:connector-curvature="0"
       sodipodi:nodetypes="cc" />
    <g
       transform="translate(-45.519428,-104.70431)"
       id="g967">
      <rect
         y="-860.59119"
         x="-2779.2354"
         height="66.48513"
         width="111.047"
         id="rect963"
         style="opacity:1;fill:#000000;fill-opacity:1;fill-rule:nonzero;stroke:none;stroke-width:8.05287266;stroke-linecap:round;stroke-linejoin:round;stroke-miterlimit:4;stroke-dasharray:none;stroke-dashoffset:0;stroke-opacity:1;paint-order:fill markers stroke" />
      <rect
         style="opacity:1;fill:#808080;fill-opacity:1;fill-rule:nonzero;stroke:none;stroke-width:7.06959152;stroke-linecap:round;stroke-linejoin:round;stroke-miterlimit:4;stroke-dasharray:none;stroke-dashoffset:0;stroke-opacity:1;paint-order:fill markers stroke"
         id="rect965"
         width="97.599998"
         height="58.299999"
         x="-2772.512"
         y="-856.49866" />
    </g>
    <rect
       style="opacity:1;fill:#000000;fill-opacity:1;fill-rule:nonzero;stroke:none;stroke-width:0.5151906;stroke-linecap:round;stroke-linejoin:round;stroke-miterlimit:4;stroke-dasharray:none;stroke-dashoffset:0;stroke-opacity:1;paint-order:fill markers stroke"
       id="rect969"
       width="150"
       height="2"
       x="-2844.231"
       y="-984.33307" />
    <rect
       y="-882.33307"
       x="-2844.231"
       height="2"
       width="150"
       id="rect971"
       style="opacity:1;fill:#000000;fill-opacity:1;fill-rule:nonzero;stroke:none;stroke-width:0.5151906;stroke-linecap:round;stroke-linejoin:round;stroke-miterlimit:4;stroke-dasharray:none;stroke-dashoffset:0;stroke-opacity:1;paint-order:fill markers stroke" />
    <rect
       style="opacity:1;fill:#000000;fill-opacity:1;fill-rule:nonzero;stroke:none;stroke-width:0.42065138;stroke-linecap:round;stroke-linejoin:round;stroke-miterlimit:4;stroke-dasharray:none;stroke-dashoffset:0;stroke-opacity:1;paint-order:fill markers stroke"
       id="rect973"
       width="100"
       height="2"
       x="-982.33307"
       y="2768.231"
       transform="rotate(90)" />
    <rect
       style="opacity:1;fill:#000000;fill-opacity:1;fill-rule:nonzero;stroke:none;stroke-width:0.88850439;stroke-linecap:round;stroke-linejoin:round;stroke-miterlimit:4;stroke-dasharray:none;stroke-dashoffset:0;stroke-opacity:1;paint-order:fill markers stroke"
       id="rect961"
       width="4.0122328"
       height="564.63684"
       x="-1511.2339"
       y="-1973.4855"
       transform="matrix(0.99801789,-0.06293089,0.01582355,0.9998748,0,0)" />
    <rect
       style="opacity:1;fill:#000000;fill-opacity:1;fill-rule:nonzero;stroke:none;stroke-width:2.29797435;stroke-linecap:round;stroke-linejoin:round;stroke-miterlimit:4;stroke-dasharray:none;stroke-dashoffset:0;stroke-opacity:1;paint-order:fill markers stroke"
       id="rect1020"
       width="80"
       height="4"
       x="-1416.7279"
       y="-1500.874"
       transform="rotate(-5.5427239)" />
    <rect
       transform="rotate(-5.5427239)"
       y="-2004.1736"
       x="-1407.4747"
       height="4"
       width="80"
       id="rect1022"
       style="opacity:1;fill:#000000;fill-opacity:1;fill-rule:nonzero;stroke:none;stroke-width:2.29797435;stroke-linecap:round;stroke-linejoin:round;stroke-miterlimit:4;stroke-dasharray:none;stroke-dashoffset:0;stroke-opacity:1;paint-order:fill markers stroke" />
    <rect
       transform="matrix(0.10970284,0.99396443,-0.99932884,0.03663154,0,0)"
       y="1060.0403"
       x="-1758.533"
       height="609.94037"
       width="4.0237389"
       id="rect1024"
       style="opacity:1;fill:#000000;fill-opacity:1;fill-rule:nonzero;stroke:none;stroke-width:0.92478442;stroke-linecap:round;stroke-linejoin:round;stroke-miterlimit:4;stroke-dasharray:none;stroke-dashoffset:0;stroke-opacity:1;paint-order:fill markers stroke" />
    <rect
       transform="rotate(88.651075)"
       y="1785.0117"
       x="-1766.8375"
       height="4"
       width="80"
       id="rect1026"
       style="opacity:1;fill:#000000;fill-opacity:1;fill-rule:nonzero;stroke:none;stroke-width:2.29797435;stroke-linecap:round;stroke-linejoin:round;stroke-miterlimit:4;stroke-dasharray:none;stroke-dashoffset:0;stroke-opacity:1;paint-order:fill markers stroke" />
    <rect
       style="opacity:1;fill:#000000;fill-opacity:1;fill-rule:nonzero;stroke:none;stroke-width:2.29797435;stroke-linecap:round;stroke-linejoin:round;stroke-miterlimit:4;stroke-dasharray:none;stroke-dashoffset:0;stroke-opacity:1;paint-order:fill markers stroke"
       id="rect1028"
       width="80"
       height="4"
       x="-1885.853"
       y="1108.5471"
       transform="rotate(83.553048)" />
    <g
       id="g1047"
       transform="rotate(75,-1495.97,-1544.0172)">
      <rect
         transform="matrix(0.10970284,0.99396443,-0.99932884,0.03663154,0,0)"
         y="1315.8751"
         x="-2089.7322"
         height="420.24106"
         width="2.7723043"
         id="rect1038"
         style="opacity:1;fill:#000000;fill-opacity:1;fill-rule:nonzero;stroke:none;stroke-width:0.63716453;stroke-linecap:round;stroke-linejoin:round;stroke-miterlimit:4;stroke-dasharray:none;stroke-dashoffset:0;stroke-opacity:1;paint-order:fill markers stroke" />
      <rect
         transform="rotate(88.651075)"
         y="1891.0798"
         x="-2084.5117"
         height="2.7559483"
         width="55.118969"
         id="rect1040"
         style="opacity:1;fill:#000000;fill-opacity:1;fill-rule:nonzero;stroke:none;stroke-width:1.58327472;stroke-linecap:round;stroke-linejoin:round;stroke-miterlimit:4;stroke-dasharray:none;stroke-dashoffset:0;stroke-opacity:1;paint-order:fill markers stroke" />
      <rect
         style="opacity:1;fill:#000000;fill-opacity:1;fill-rule:nonzero;stroke:none;stroke-width:1.58327472;stroke-linecap:round;stroke-linejoin:round;stroke-miterlimit:4;stroke-dasharray:none;stroke-dashoffset:0;stroke-opacity:1;paint-order:fill markers stroke"
         id="rect1042"
         width="55.118969"
         height="2.7559483"
         x="-2221.8384"
         y="1345.3308"
         transform="rotate(83.553048)" />
    </g>
    <g
       transform="matrix(0.76877047,0.02725438,-0.02725438,0.76877047,-441.7167,-429.10698)"
       id="g1055"
       style="stroke-width:1.19245625">
      <rect
         style="opacity:1;fill:#000000;fill-opacity:1;fill-rule:nonzero;stroke:none;stroke-width:0.75979084;stroke-linecap:round;stroke-linejoin:round;stroke-miterlimit:4;stroke-dasharray:none;stroke-dashoffset:0;stroke-opacity:1;paint-order:fill markers stroke"
         id="rect1049"
         width="2.7723043"
         height="420.24106"
         x="-2089.7322"
         y="1315.8751"
         transform="matrix(0.10970284,0.99396443,-0.99932884,0.03663154,0,0)" />
      <rect
         style="opacity:1;fill:#000000;fill-opacity:1;fill-rule:nonzero;stroke:none;stroke-width:1.88798583;stroke-linecap:round;stroke-linejoin:round;stroke-miterlimit:4;stroke-dasharray:none;stroke-dashoffset:0;stroke-opacity:1;paint-order:fill markers stroke"
         id="rect1051"
         width="55.118969"
         height="2.7559483"
         x="-2084.5117"
         y="1891.0798"
         transform="rotate(88.651075)" />
      <rect
         transform="rotate(83.553048)"
         y="1345.3308"
         x="-2221.8384"
         height="2.7559483"
         width="55.118969"
         id="rect1053"
         style="opacity:1;fill:#000000;fill-opacity:1;fill-rule:nonzero;stroke:none;stroke-width:1.88798583;stroke-linecap:round;stroke-linejoin:round;stroke-miterlimit:4;stroke-dasharray:none;stroke-dashoffset:0;stroke-opacity:1;paint-order:fill markers stroke" />
    </g>
    <g
       transform="rotate(81.775187,1850.4326,-2683.7445)"
       id="g3623">
      <path
         inkscape:connector-curvature="0"
         id="path3603"
         style="fill:#000000;fill-opacity:1;fill-rule:nonzero;stroke:none;stroke-width:0.27578396"
         d="M 3074.1562,828.56408 3076.084,816.57851 3060.0305,813.79538 3065.3808,782.96855 3081.2218,785.7537 3082.7193,776.76313 3084.6471,776.97551 3082.7193,787.89414 3066.8783,785.32389 3062.383,812.2951 3078.224,815.07823 3075.8688,828.99389 3074.1562,828.56408" />
      <path
         inkscape:connector-curvature="0"
         id="path3605"
         style="fill:#000000;fill-opacity:1;fill-rule:nonzero;stroke:none;stroke-width:0.27578396"
         d="M 2562.1247,745.08123 2579.6756,638.26487 2564.6922,635.69411 2573.8979,578.9711 2616.7079,586.03411 2597.4443,703.7686 2719.2443,723.67478 2714.749,750.64649 2594.0191,730.73778 2591.0213,749.79142 2562.1247,745.08123 2564.2648,743.36857 2589.3087,747.43658 2592.5216,728.59785 2713.2515,748.29164 2717.1042,725.38744 2595.3043,705.26636 2614.5678,587.53136 2575.6105,581.11104 2566.8323,634.19939 2581.8157,636.55221 2564.2648,743.36857 2562.1247,745.08123" />
      <path
         inkscape:connector-curvature="0"
         id="path3607"
         style="fill:#000000;fill-opacity:1;fill-rule:nonzero;stroke:none;stroke-width:0.27578396"
         d="M 2538.3632,900.91845 2522.0947,1000.8847 2508.1813,998.52934 2499.4031,1051.4028 2537.5082,1057.8231 2555.4893,948.01123 2676.2165,967.70503 2680.072,944.80133 2560.1969,925.10753 2563.4071,905.19883 2538.3632,900.91845 2536.8629,898.77851 2565.7623,903.48617 2562.337,923.39487 2682.2121,943.08867 2677.7168,970.06038 2556.9868,950.15168 2539.0057,1059.9661 2497.2631,1053.1154 2506.4687,996.3894 2520.382,998.52934 2536.8629,898.77851 2538.3632,900.91845" />
      <path
         inkscape:connector-curvature="0"
         id="path3609"
         style="fill:#00b6aa;fill-opacity:1;fill-rule:nonzero;stroke:none;stroke-width:0.27578396"
         d="M 3069.2335,832.41921 3101.1279,837.76956 V 838.62715 L 3069.0184,833.27427 3069.2335,832.41921" />
      <path
         inkscape:connector-curvature="0"
         id="path3611"
         style="fill:#00b6aa;fill-opacity:1;fill-rule:nonzero;stroke:none;stroke-width:0.27578396"
         d="M 3070.0912,827.49361 3101.9856,832.84699 3101.7705,833.70155 3069.876,828.35171 3070.0912,827.49361" />
      <path
         inkscape:connector-curvature="0"
         id="path3613"
         style="fill:#00b6aa;fill-opacity:1;fill-rule:nonzero;stroke:none;stroke-width:0.27578396"
         d="M 3068.806,832.84699 3069.6637,827.92139 H 3070.5186 L 3069.6637,832.84699 H 3068.806" />
      <path
         inkscape:connector-curvature="0"
         id="path3615"
         style="fill:#00b6aa;fill-opacity:1;fill-rule:nonzero;stroke:none;stroke-width:0.27578396"
         d="M 3100.7004,838.19684 3101.5581,833.27427 H 3102.413 L 3101.5581,838.41225 3100.7004,838.19684" />
      <path
         inkscape:connector-curvature="0"
         id="path3617"
         style="fill:#000000;fill-opacity:1;fill-rule:nonzero;stroke:none;stroke-width:0.27578396"
         d="M 3106.4808,780.61623 3104.7682,790.67677 3120.8216,793.24399 3117.184,815.07823 3101.343,812.51051 3097.9178,832.63158 3095.99,832.2043 3099.6304,810.37057 3115.6838,812.93779 3118.4664,794.95665 3102.6281,792.38943 3104.5531,780.40082 3106.4808,780.61623" />
      <path
         inkscape:connector-curvature="0"
         id="path3619"
         style="fill:none;stroke:#000000;stroke-width:0.21406075;stroke-linecap:round;stroke-linejoin:round;stroke-miterlimit:10;stroke-dasharray:none;stroke-opacity:1"
         d="M 3105.1957,781.47079 3083.3619,777.83361 3083.7894,775.90554 3105.4108,779.54576 Z" />
      <path
         style="fill:none;stroke:#000000;stroke-width:3;stroke-linecap:butt;stroke-linejoin:miter;stroke-miterlimit:4;stroke-dasharray:none;stroke-opacity:1"
         d="M 1715.5121,612.36313 1899.391,640.4048 1979.8786,83.848089 2072.7792,118.95227 2093.5457,111.88977 2241.6748,170.11306 2253.2328,186.38154 2357.4819,225.55676 2381.0284,218.91851 2527.2325,271.36417 2537.078,294.48327 2659.9507,338.79343 2690.3476,321.24008 2689.2748,318.88473 2795.664,359.77262 2793.9513,368.33287 2802.7297,393.80682 2944.0082,446.89517 C 2944.0082,446.89517 2970.1249,430.83906 2970.1249,430.83906 2970.1249,430.83906 3078.439,468.51401 3078.8666,469.58399 3079.2941,470.65393 3087.4295,499.55374 3087.4295,499.55374 L 3127.4597,515.39442 3110.3335,618.35565 3096.4203,616.00334 3091.71,655.17554 3103.6982,657.31597 3097.2752,696.06086 3117.8265,700.55616 3122.9618,677.22467 3176.6925,686.85794 3188.466,613.86339 3134.7376,604.44253 3149.0782,523.10012 3293.9974,573.40281 3316.2587,554.35474 3426.2883,594.16961 3435.7061,622.63856 3536.0999,654.74826 3504.2054,854.68071 3353.5062,830.49163 3349.2257,851.25539 3500.7801,876.72936 C 3500.7801,876.72936 3501.4228,893.63444 3497.3548,892.56751 3493.2871,891.5006 3433.9935,1297.7854 3433.9935,1297.7854 L 3331.4571,1292.0077 3310.0534,1307.8459 3192.7461,1308.0613 3174.3375,1289.8648 3115.899,1291.365 3023.638,1268.4613 3072.2311,985.47126 3076.7263,986.11343 3077.1539,980.54819 3044.617,974.98294 C 3044.617,974.98294 3042.4768,984.40078 3043.9744,980.54819 3045.4719,976.69559 3050.1823,981.61816 3050.1823,981.61816 L 3045.687,997.03207 3030.7037,994.67672 3024.4957,1025.2861 3041.4069,1028.0688 2994.9537,1304.636 2967.5548,1304.4236 2948.0743,1320.904 2829.056,1321.3348 2809.7925,1301.2107 2674.0763,1303.1382 2654.8112,1320.4762 2536.008,1320.2618 2517.1719,1304.636 2398.7944,1301.641 2378.6732,1318.5522 2220.6959,1318.9774 2202.7147,1301.641 C 2202.7147,1301.641 2106.1712,1305.7059 2107.0288,1302.9233 2107.8864,1300.1407 2086.6935,1318.9774 2086.6935,1318.9774 L 1927.2176,1320.0494 1908.1692,1303.7809 C 1908.1692,1303.7809 1802.4227,1306.5611 1803.4927,1305.706 1804.5627,1304.8509 1877.3421,792.60179 1877.3421,792.60179 L 1691.1107,766.70257 Z"
         id="path3621"
         inkscape:connector-curvature="0" />
    </g>
    <path
       style="fill:none;stroke:#000000;stroke-width:0.26458332px;stroke-linecap:butt;stroke-linejoin:miter;stroke-opacity:1"
       d="M -822.90058,-1590.2588 V -1290.2588"
       id="path1049"
       inkscape:connector-curvature="0" />
    <rect
       transform="matrix(0.97812941,-0.20799724,0.18615141,0.98252107,0,0)"
       y="-2135.2019"
       x="-1241.9861"
       height="399.92099"
       width="4.0082707"
       id="rect1041"
       style="opacity:1;fill:#000000;fill-opacity:1;fill-rule:nonzero;stroke:none;stroke-width:0.88812083;stroke-linecap:round;stroke-linejoin:round;stroke-miterlimit:4;stroke-dasharray:none;stroke-dashoffset:0;stroke-opacity:1;paint-order:fill markers stroke" />
  </g>
</svg>
